===============================================================================
 Language            Files        Lines         Code     Comments       Blanks
===============================================================================
 Markdown                1           92            0           59           33
 Plain Text             14           29            0           28            1
===============================================================================
 Total                  15          121            0           87           34
===============================================================================
